{
  "project_info": {
    "project_number": "468120203437",
    "firebase_url": "https://golden-medium-149009.firebaseio.com",
    "project_id": "golden-medium-149009",
    "storage_bucket": "golden-medium-149009.appspot.com"
  },
  "client": [
    {
      "client_info": {
        "mobilesdk_app_id": "1:468120203437:android:8d705208dbe34aa0",
        "android_client_info": {
          "package_name": "fr.eklouadjakly.smartcity"
        }
      },
      "oauth_client": [
        {
          "client_id": "468120203437-ecr8lg9q5jimsfa1f8j7hveg2nbaabhl.apps.googleusercontent.com",
          "client_type": 3
        },
        {
          "client_id": "468120203437-l85nmkd3vc0fi3kqe3lun3k5pdqm3r3m.apps.googleusercontent.com",
          "client_type": 1,
          "android_info": {
            "package_name": "fr.eklouadjakly.smartcity",
            "certificate_hash": "733937d94331b0989f1943244104301ec755bf0d"
          }
        },
        {
          "client_id": "468120203437-dvqenqkh0e8svngt9tpna6bib5c7ifll.apps.googleusercontent.com",
          "client_type": 3
        }
      ],
      "api_key": [
        {
          "current_key": "AIzaSyC509OXbU0oPUk6RgFb4On7kcv88H6mnw8"
        }
      ],
      "services": {
        "analytics_service": {
          "status": 1
        },
        "appinvite_service": {
          "status": 2,
          "other_platform_oauth_client": [
            {
              "client_id": "468120203437-ecr8lg9q5jimsfa1f8j7hveg2nbaabhl.apps.googleusercontent.com",
              "client_type": 3
            }
          ]
        },
        "ads_service": {
          "status": 2
        }
      }
    }
  ],
  "configuration_version": "1"
}